Test optimal number of MDS dimensions. — mds_test • nzilbb.vowels
…
    Examples

# Apply interval MDS to `sim_matrix`, with 5 permutations and bootstraps
# testing up to 3 dimensions. In real usage, increase `n_boots` and `n_perms`
# to at least 50.
mds_test(
 smacof::sim2diss(sim_matrix, method="reverse"),
 n_boots = 5,
 n_perms = 5,
 test_dimensions = 3,
 mds_type = 'interval'
)
#> $stress_reduction
#> # A tibble: 33 × 6
#>    source    dims stress_dist cumulative lag_stress  diff
#>    <chr>    <int>       <dbl>      <dbl>      <dbl> <dbl>
#>  1 permuted     1       0.539          1      1     0.461
#>  2 permuted     1       0.544          2      1     0.456
#>  3 permuted     1       0.543          3      1     0.457
#>  4 permuted     1       0.548          4      1     0.452
#>  5 permuted     1       0.537          5      1     0.463
#>  6 permuted     2       0.363          1      0.539 0.177
#>  7 permuted     2       0.368          2      0.544 0.175
#>  8 permuted     2       0.360          3      0.543 0.182
#>  9 permuted     2       0.363          4      0.548 0.184
#> 10 permuted     2       0.360          5      0.537 0.177
#> # ℹ 23 more rows
…
